{
    "$schema": "https://raw.githubusercontent.com/DanielGavin/ols/master/misc/ols.schema.json",
    "collections": [
        {
            "name": "core",
            "path": "C:\\Users\\ray.garner\\work\\tools\\Odin\\core"
        }
    ],
    "enable_document_symbols": true,
    "enable_semantic_tokens": false,
    "enable_hover": true,
    "enable_snippets": true
}